%YAML 1.1
%TAG !u! tag:unity3d.com,2011:
--- !u!114 &11400000
MonoBehaviour:
  m_ObjectHideFlags: 0
  m_CorrespondingSourceObject: {fileID: 0}
  m_PrefabInstance: {fileID: 0}
  m_PrefabAsset: {fileID: 0}
  m_GameObject: {fileID: 0}
  m_Enabled: 1
  m_EditorHideFlags: 0
  m_Script: {fileID: 11500000, guid: 097628133a148a74a9b3edc157f561b2, type: 3}
  m_Name: Potion
  m_EditorClassIdentifier: 
  Name: Potion
  Price: 50
  Image: {fileID: 3154271208731759113, guid: 4dbf56135d73df84695560006429557b, type: 3}
  ItemType: 2
  ConsumableType: 0
  amount: 1
