%YAML 1.1
%TAG !u! tag:unity3d.com,2011:
--- !u!114 &11400000
MonoBehaviour:
  m_ObjectHideFlags: 0
  m_CorrespondingSourceObject: {fileID: 0}
  m_PrefabInstance: {fileID: 0}
  m_PrefabAsset: {fileID: 0}
  m_GameObject: {fileID: 0}
  m_Enabled: 1
  m_EditorHideFlags: 0
  m_Script: {fileID: 11500000, guid: c3d959d538653884ead6bde422308ab7, type: 3}
  m_Name: DashCooldown
  m_EditorClassIdentifier: 
  Name: Dash CD
  Price: 200
  Image: {fileID: 6305401216542840162, guid: f72497ede3b231c479378c5611d4522a, type: 3}
  ItemType: 1
  modifiers:
  - value: 0.9
    stat: 1
