%YAML 1.1
%TAG !u! tag:unity3d.com,2011:
--- !u!1001 &2167676376930832900
PrefabInstance:
  m_ObjectHideFlags: 0
  serializedVersion: 2
  m_Modification:
    m_TransformParent: {fileID: 0}
    m_Modifications:
    - target: {fileID: 2387630908100734490, guid: 173dcec18a0a54a4e936e3477a9528ab,
        type: 3}
      propertyPath: m_Sprite
      value: 
      objectReference: {fileID: -5528894423819592419, guid: c2c7eeb8776c9de40aff0c03b5d7ea46,
        type: 3}
    - target: {fileID: 2387630908100734490, guid: 173dcec18a0a54a4e936e3477a9528ab,
        type: 3}
      propertyPath: m_WasSpriteAssigned
      value: 1
      objectReference: {fileID: 0}
    - target: {fileID: 2387630908100734490, guid: 173dcec18a0a54a4e936e3477a9528ab,
        type: 3}
      propertyPath: m_SortingOrder
      value: 2
      objectReference: {fileID: 0}
    - target: {fileID: 2997000934498499025, guid: 173dcec18a0a54a4e936e3477a9528ab,
        type: 3}
      propertyPath: m_LocalPosition.x
      value: 0
      objectReference: {fileID: 0}
    - target: {fileID: 2997000934498499025, guid: 173dcec18a0a54a4e936e3477a9528ab,
        type: 3}
      propertyPath: m_LocalPosition.y
      value: 0
      objectReference: {fileID: 0}
    - target: {fileID: 2997000934498499025, guid: 173dcec18a0a54a4e936e3477a9528ab,
        type: 3}
      propertyPath: m_LocalPosition.z
      value: 0
      objectReference: {fileID: 0}
    - target: {fileID: 2997000934498499025, guid: 173dcec18a0a54a4e936e3477a9528ab,
        type: 3}
      propertyPath: m_LocalRotation.x
      value: 0
      objectReference: {fileID: 0}
    - target: {fileID: 2997000934498499025, guid: 173dcec18a0a54a4e936e3477a9528ab,
        type: 3}
      propertyPath: m_LocalRotation.y
      value: 0
      objectReference: {fileID: 0}
    - target: {fileID: 2997000934498499025, guid: 173dcec18a0a54a4e936e3477a9528ab,
        type: 3}
      propertyPath: m_LocalRotation.z
      value: 0
      objectReference: {fileID: 0}
    - target: {fileID: 2997000934498499025, guid: 173dcec18a0a54a4e936e3477a9528ab,
        type: 3}
      propertyPath: m_LocalRotation.w
      value: 1
      objectReference: {fileID: 0}
    - target: {fileID: 2997000934498499025, guid: 173dcec18a0a54a4e936e3477a9528ab,
        type: 3}
      propertyPath: m_RootOrder
      value: 0
      objectReference: {fileID: 0}
    - target: {fileID: 2997000934498499025, guid: 173dcec18a0a54a4e936e3477a9528ab,
        type: 3}
      propertyPath: m_LocalEulerAnglesHint.x
      value: 0
      objectReference: {fileID: 0}
    - target: {fileID: 2997000934498499025, guid: 173dcec18a0a54a4e936e3477a9528ab,
        type: 3}
      propertyPath: m_LocalEulerAnglesHint.y
      value: 0
      objectReference: {fileID: 0}
    - target: {fileID: 2997000934498499025, guid: 173dcec18a0a54a4e936e3477a9528ab,
        type: 3}
      propertyPath: m_LocalEulerAnglesHint.z
      value: 0
      objectReference: {fileID: 0}
    - target: {fileID: 4624133472928000069, guid: 173dcec18a0a54a4e936e3477a9528ab,
        type: 3}
      propertyPath: m_LocalPosition.x
      value: 0.362
      objectReference: {fileID: 0}
    - target: {fileID: 7758259455831519949, guid: 173dcec18a0a54a4e936e3477a9528ab,
        type: 3}
      propertyPath: m_Name
      value: Pistol
      objectReference: {fileID: 0}
    m_RemovedComponents: []
  m_SourcePrefab: {fileID: 100100000, guid: 173dcec18a0a54a4e936e3477a9528ab, type: 3}
